<?xml version="1.0" encoding="UTF-8"?>
<svg width="18px" height="18px" viewBox="0 0 18 18" version="1.1" xmlns="http://www.w3.org/2000/svg" xmlns:xlink="http://www.w3.org/1999/xlink">
    <title>icon / alert</title>
    <desc>Created with Sketch.</desc>
    <defs />
    <g id="icon-/-alert" stroke="none" stroke-width="1" fill="none" fill-rule="evenodd">
        <path d="M9.89442719,1.78885438 L17.2763932,16.5527864 C17.5233825,17.0467649 17.3231581,17.6474379 16.8291796,17.8944272 C16.6903242,17.9638549 16.5372111,18 16.381966,18 L1.61803399,18 C1.06574924,18 0.618033989,17.5522847 0.618033989,17 C0.618033989,16.8447549 0.654179081,16.6916418 0.723606798,16.5527864 L8.10557281,1.78885438 C8.35256206,1.29487588 8.9532351,1.09465154 9.4472136,1.34164079 C9.640741,1.43840449 9.79766349,1.59532698 9.89442719,1.78885438 Z"
              id="Triangle" fill="#F5A623"/>
        <text id="!" font-family="Sailec-Medium, Sailec" font-size="12" font-weight="400" fill="#FFFFFF">
            <tspan x="7" y="14">!</tspan>
        </text>
    </g>
</svg>