<?xml version="1.0" encoding="UTF-8"?>
<svg width="9px" height="5px" viewBox="0 0 9 5" version="1.1" xmlns="http://www.w3.org/2000/svg" xmlns:xlink="http://www.w3.org/1999/xlink">
    <!-- Generator: Sketch 49.3 (51167) - http://www.bohemiancoding.com/sketch -->
    <title>icon / chevron down</title>
    <desc>Created with Sketch.</desc>
    <defs />
    <g id="icon-/-chevron-down" stroke="none" stroke-width="1" fill="none" fill-rule="evenodd">
        <path d="M6.81949638,5.93194401 C7.05361814,6.16951392 7.06097121,6.56241204 6.8358202,6.80960269 C6.720377,6.93622388 6.56610958,7 6.41169511,7 C6.26492782,7 6.11816054,6.94258598 6.00404089,6.82682689 L2.18044434,2.94750104 C2.0651482,2.83050058 2,2.66881027 2,2.49998201 C2,2.33130893 2.0651482,2.16961862 2.18044434,2.05261816 L6.00404089,-1.82670769 C6.23816265,-2.06427761 6.61066919,-2.05667413 6.8358202,-1.80948349 C7.06097121,-1.56229284 7.05361814,-1.16939472 6.81949638,-0.931824807 L3.43693699,2.49998201 L6.81949638,5.93194401 Z"
              id="chevron" stroke="#4DA1FF" stroke-width="0.3" fill="#4DA1FF"
              transform="translate(4.500000, 2.500000) scale(-1, 1) rotate(90.000000) translate(-4.500000, -2.500000) "/>
    </g>
</svg>