<svg width="24px" height="24px" viewBox="0 0 24 24" version="1.1" xmlns="http://www.w3.org/2000/svg" xmlns:xlink="http://www.w3.org/1999/xlink">
    <!-- Generator: Sketch 49.1 (51147) - http://www.bohemiancoding.com/sketch -->
    <title>icon / close</title>
    <desc>Created with Sketch.</desc>
    <defs>
        <path d="M12.707,12 L23.853,0.854 C24.049,0.658 24.049,0.342 23.853,0.146 C23.658,-0.049 23.342,-0.049 23.146,0.146 L12,11.293 L0.853,0.146 C0.658,-0.049 0.342,-0.049 0.146,0.146 C-0.049,0.342 -0.049,0.658 0.146,0.854 L11.293,12 L0.146,23.146 C-0.049,23.342 -0.049,23.658 0.146,23.854 C0.244,23.951 0.372,24 0.5,24 C0.628,24 0.756,23.951 0.853,23.854 L12,12.707 L23.146,23.854 C23.244,23.951 23.372,24 23.5,24 C23.628,24 23.756,23.951 23.853,23.854 C24.049,23.658 24.049,23.342 23.853,23.146 L12.707,12 Z" id="path-1" />
    </defs>
    <g id="icon-/-close" stroke="none" stroke-width="1" fill="none" fill-rule="evenodd">
        <g id="color/blue">
            <mask id="mask-2" fill="white">
                <use xlink:href="#path-1" />
            </mask>
            <use id="Mask" fill="#000000" xlink:href="#path-1" />
            <g mask="url(#mask-2)" fill="#4DA1FF" id="color">
                <g transform="translate(-1.000000, -1.000000)">
                    <rect x="0" y="0" width="26" height="26" />
                </g>
            </g>
        </g>
    </g>
</svg>