<?xml version="1.0" encoding="UTF-8"?>
<svg width="24px" height="24px" viewBox="0 0 24 24" version="1.1" xmlns="http://www.w3.org/2000/svg" xmlns:xlink="http://www.w3.org/1999/xlink">
    <!-- Generator: Sketch 49.3 (51167) - http://www.bohemiancoding.com/sketch -->
    <title>icon / lock / locked</title>
    <desc>Created with Sketch.</desc>
    <defs>
        <path d="M13,15 C13,14.448 12.551,14 12,14 C11.449,14 11,14.448 11,15 C11,15.366 11.207,15.672 11.5,15.846 L11.5,18.5 C11.5,18.776 11.724,19 12,19 C12.276,19 12.5,18.776 12.5,18.5 L12.5,15.846 C12.793,15.672 13,15.366 13,15 M20,23 L4,23 L4,10 L6.5,10 L17.5,10 L20,10 L20,23 Z M7,6 C7,3.243 9.243,1 12,1 C14.757,1 17,3.243 17,6 L17,9 L7,9 L7,6 Z M20.5,9 L18,9 L18,6 C18,2.691 15.309,0 12,0 C8.691,0 6,2.691 6,6 L6,9 L3.5,9 C3.224,9 3,9.224 3,9.5 L3,23.5 C3,23.776 3.224,24 3.5,24 L20.5,24 C20.776,24 21,23.776 21,23.5 L21,9.5 C21,9.224 20.776,9 20.5,9 Z" id="path-1" />
    </defs>
    <g id="icon-/-lock-/-locked" stroke="none" stroke-width="1" fill="none" fill-rule="evenodd">
        <mask id="mask-2" fill="white">
            <use xlink:href="#path-1" />
        </mask>
        <use id="Mask" fill="#000000" xlink:href="#path-1" />
        <g id="color/blue" mask="url(#mask-2)" fill="#F5A623">
            <g transform="translate(-1.000000, -1.000000)" id="color">
                <rect x="0" y="0" width="26" height="26" />
            </g>
        </g>
    </g>
</svg>