<svg xmlns="http://www.w3.org/2000/svg" xmlns:xlink="http://www.w3.org/1999/xlink" width="24" height="24" viewBox="0 0 24 24">
  <defs>
    <path id="more-a" d="M21,5 C19.897,5 19,4.103 19,3 C19,1.897 19.897,1 21,1 C22.103,1 23,1.897 23,3 C23,4.103 22.103,5 21,5 M21,0 C19.346,0 18,1.346 18,3 C18,4.654 19.346,6 21,6 C22.654,6 24,4.654 24,3 C24,1.346 22.654,0 21,0 M12,5 C10.897,5 10,4.103 10,3 C10,1.897 10.897,1 12,1 C13.103,1 14,1.897 14,3 C14,4.103 13.103,5 12,5 M12,0 C10.346,0 9,1.346 9,3 C9,4.654 10.346,6 12,6 C13.654,6 15,4.654 15,3 C15,1.346 13.654,0 12,0 M3,5 C1.897,5 1,4.103 1,3 C1,1.897 1.897,1 3,1 C4.103,1 5,1.897 5,3 C5,4.103 4.103,5 3,5 M3,0 C1.346,0 0,1.346 0,3 C0,4.654 1.346,6 3,6 C4.654,6 6,4.654 6,3 C6,1.346 4.654,0 3,0"/>
  </defs>
  <g fill="none" fill-rule="evenodd" transform="translate(0 9)">
    <mask id="more-b" fill="#fff">
      <use xlink:href="#more-a"/>
    </mask>
    <use fill="#4DA1FF" xlink:href="#more-a"/>
    <g fill="#4DA1FF" mask="url(#more-b)">
      <rect width="26" height="26" transform="translate(-2 -10)"/>
    </g>
  </g>
</svg>
