<svg width="24px" height="24px" viewBox="0 0 24 24" version="1.1" xmlns="http://www.w3.org/2000/svg" xmlns:xlink="http://www.w3.org/1999/xlink">
    <!-- Generator: Sketch 49.1 (51147) - http://www.bohemiancoding.com/sketch -->
    <desc>Created with Sketch.</desc>
    <defs>
        <path d="M20.6058261,14.7402479 C19.0896522,16.2567515 17.0757391,17.0906719 14.9324348,17.0906719 C12.788087,17.0906719 10.7731304,16.2567515 9.258,14.7402479 C6.1286087,11.6112198 6.1286087,6.51898239 9.258,3.38995434 C10.8221739,1.82439661 12.8767826,1.04266145 14.9324348,1.04266145 C16.986,1.04266145 19.0416522,1.82439661 20.6058261,3.38995434 C22.122,4.90541422 22.9557391,6.92080887 22.9557391,9.06562296 C22.9557391,11.2093933 22.122,13.2237443 20.6058261,14.7402479 M21.3435652,2.65101109 C17.8093043,-0.884018265 12.0566087,-0.88297456 8.51921739,2.65101109 C5.10808696,6.06392694 4.99852174,11.5329419 8.16965217,15.0898891 L0.152608696,23.1097195 C-0.0508695652,23.313242 -0.0508695652,23.6430528 0.152608696,23.847619 C0.254869565,23.9488584 0.388434783,24 0.520956522,24 C0.654521739,24 0.788086957,23.9488584 0.890347826,23.847619 L8.90634783,15.8288324 C10.5696522,17.3140248 12.6847826,18.134377 14.9324348,18.134377 C17.3543478,18.134377 19.6312174,17.1919113 21.3435652,15.4781474 C23.0569565,13.7654273 23.9992174,11.4880626 23.9992174,9.06562296 C23.9992174,6.6421396 23.0569565,4.36477495 21.3435652,2.65101109" id="path-1" />
    </defs>
    <g id="Symbols" stroke="none" stroke-width="1" fill="none" fill-rule="evenodd">
        <g id="icon-/-search">
            <g id="color/blue">
                <mask id="mask-2" fill="white">
                    <use xlink:href="#path-1" />
                </mask>
                <use id="Mask" fill="white" xlink:href="#path-1" />
                <g mask="url(#mask-2)" fill="white" id="color">
                    <g transform="translate(-1.000000, -1.000000)">
                        <rect x="0" y="0" width="26" height="26" />
                    </g>
                </g>
            </g>
        </g>
    </g>
</svg>